<svg width="21" height="18" viewBox="0 0 21 18" fill="none" xmlns="http://www.w3.org/2000/svg">
<path fill-rule="evenodd" clip-rule="evenodd" d="M0.829346 1.64358C0.829346 1.25863 0.97825 0.889455 1.2433 0.617256C1.50835 0.345058 1.86784 0.192139 2.24268 0.192139H19.2027C19.5775 0.192139 19.937 0.345058 20.2021 0.617256C20.4671 0.889455 20.616 1.25863 20.616 1.64358C20.616 2.02853 20.4671 2.39771 20.2021 2.6699C19.937 2.9421 19.5775 3.09502 19.2027 3.09502H2.24268C1.86784 3.09502 1.50835 2.9421 1.2433 2.6699C0.97825 2.39771 0.829346 2.02853 0.829346 1.64358Z" fill="white"/>
<path fill-rule="evenodd" clip-rule="evenodd" d="M0.829346 8.90078C0.829346 8.51584 0.97825 8.14666 1.2433 7.87446C1.50835 7.60226 1.86784 7.44934 2.24268 7.44934H19.2027C19.5775 7.44934 19.937 7.60226 20.2021 7.87446C20.4671 8.14666 20.616 8.51584 20.616 8.90078C20.616 9.28573 20.4671 9.65491 20.2021 9.92711C19.937 10.1993 19.5775 10.3522 19.2027 10.3522H2.24268C1.86784 10.3522 1.50835 10.1993 1.2433 9.92711C0.97825 9.65491 0.829346 9.28573 0.829346 8.90078Z" fill="white"/>
<path fill-rule="evenodd" clip-rule="evenodd" d="M0.829346 16.158C0.829346 15.773 0.97825 15.4039 1.2433 15.1317C1.50835 14.8595 1.86784 14.7065 2.24268 14.7065H10.7227C11.0975 14.7065 11.457 14.8595 11.7221 15.1317C11.9871 15.4039 12.136 15.773 12.136 16.158C12.136 16.5429 11.9871 16.9121 11.7221 17.1843C11.457 17.4565 11.0975 17.6094 10.7227 17.6094H2.24268C1.86784 17.6094 1.50835 17.4565 1.2433 17.1843C0.97825 16.9121 0.829346 16.5429 0.829346 16.158Z" fill="white"/>
</svg>
