<svg width="10" height="10" viewBox="0 0 10 10" fill="none" xmlns="http://www.w3.org/2000/svg">
<path d="M6.59892 4.8479C6.59892 5.22132 6.45393 5.57945 6.19583 5.8435C5.93773 6.10755 5.58768 6.25589 5.22267 6.25589C4.85767 6.25589 4.50761 6.10755 4.24951 5.8435C3.99142 5.57945 3.84642 5.22132 3.84642 4.8479C3.84642 4.76765 3.85468 4.68927 3.8689 4.61324H3.38767V6.48914C3.38767 6.61962 3.49089 6.72521 3.61842 6.72521H6.82738C6.8885 6.72509 6.94708 6.70016 6.99025 6.6559C7.03343 6.61165 7.05767 6.55167 7.05767 6.48914V4.61324H6.57644C6.59067 4.68927 6.59892 4.76765 6.59892 4.8479ZM5.22267 5.78656C5.34319 5.78653 5.46252 5.76221 5.57385 5.715C5.68519 5.66779 5.78634 5.5986 5.87154 5.5114C5.95674 5.42419 6.02431 5.32067 6.0704 5.20675C6.1165 5.09282 6.1402 4.97073 6.14017 4.84743C6.14014 4.72413 6.11637 4.60205 6.07023 4.48815C6.02408 4.37425 5.95645 4.27077 5.87121 4.1836C5.78597 4.09644 5.68479 4.02731 5.57343 3.98015C5.46207 3.933 5.34273 3.90874 5.22221 3.90877C4.97882 3.90884 4.74541 4.00781 4.57335 4.18393C4.40128 4.36006 4.30465 4.59889 4.30471 4.8479C4.30477 5.09691 4.40152 5.3357 4.57367 5.51173C4.74582 5.68776 4.97927 5.78662 5.22267 5.78656ZM6.32367 3.86231H6.87371C6.91026 3.86231 6.94531 3.84749 6.97119 3.8211C6.99708 3.79471 7.01168 3.7589 7.0118 3.72151V3.15879C7.0118 3.12132 6.99725 3.08539 6.97136 3.0589C6.94546 3.0324 6.91034 3.01752 6.87371 3.01752H6.32367C6.28705 3.01752 6.25193 3.0324 6.22603 3.0589C6.20014 3.08539 6.18559 3.12132 6.18559 3.15879V3.72151C6.18605 3.79895 6.24798 3.86231 6.32367 3.86231ZM5.22267 0.342346C4.05466 0.342346 2.93448 0.817037 2.10857 1.66199C1.28266 2.50695 0.818665 3.65295 0.818665 4.8479C0.818665 6.04285 1.28266 7.18885 2.10857 8.03381C2.93448 8.87876 4.05466 9.35345 5.22267 9.35345C5.80101 9.35345 6.37369 9.23691 6.90801 9.01049C7.44233 8.78406 7.92782 8.45219 8.33677 8.03381C8.74572 7.61543 9.07012 7.11874 9.29144 6.5721C9.51276 6.02546 9.62668 5.43958 9.62668 4.8479C9.62668 4.25622 9.51276 3.67034 9.29144 3.1237C9.07012 2.57706 8.74572 2.08037 8.33677 1.66199C7.92782 1.24361 7.44233 0.911736 6.90801 0.685311C6.37369 0.458886 5.80101 0.342346 5.22267 0.342346ZM7.51642 6.67312C7.51642 6.95988 7.28705 7.19454 7.00675 7.19454H3.43859C3.15829 7.19454 2.92892 6.95988 2.92892 6.67312V3.02268C2.92892 2.73592 3.15829 2.50126 3.43859 2.50126H7.00675C7.28705 2.50126 7.51642 2.73592 7.51642 3.02268V6.67312Z" fill="url(#paint0_linear_127_737)"/>
<defs>
<linearGradient id="paint0_linear_127_737" x1="3.26534" y1="6.85037" x2="12.6967" y2="0.542758" gradientUnits="userSpaceOnUse">
<stop stop-color="#FF2E00"/>
<stop offset="1" stop-color="#FF006B"/>
</linearGradient>
</defs>
</svg>
